%YAML 1.1
%TAG !u! tag:unity3d.com,2011:
--- !u!29 &1
OcclusionCullingSettings:
  m_ObjectHideFlags: 0
  serializedVersion: 2
  m_OcclusionBakeSettings:
    smallestOccluder: 5
    smallestHole: 0.25
    backfaceThreshold: 100
  m_SceneGUID: 00000000000000000000000000000000
  m_OcclusionCullingData: {fileID: 0}
--- !u!104 &2
RenderSettings:
  m_ObjectHideFlags: 0
  serializedVersion: 9
  m_Fog: 0
  m_FogColor: {r: 0.5, g: 0.5, b: 0.5, a: 1}
  m_FogMode: 3
  m_FogDensity: 0.01
  m_LinearFogStart: 0
  m_LinearFogEnd: 300
  m_AmbientSkyColor: {r: 0.212, g: 0.227, b: 0.259, a: 1}
  m_AmbientEquatorColor: {r: 0.114, g: 0.125, b: 0.133, a: 1}
  m_AmbientGroundColor: {r: 0.047, g: 0.043, b: 0.035, a: 1}
  m_AmbientIntensity: 1
  m_AmbientMode: 0
  m_SubtractiveShadowColor: {r: 0.42, g: 0.478, b: 0.627, a: 1}
  m_SkyboxMaterial: {fileID: 2100000, guid: 65ac607d193e1194ab5118229dd27fcd, type: 2}
  m_HaloStrength: 0.5
  m_FlareStrength: 1
  m_FlareFadeSpeed: 3
  m_HaloTexture: {fileID: 0}
  m_SpotCookie: {fileID: 10001, guid: 0000000000000000e000000000000000, type: 0}
  m_DefaultReflectionMode: 0
  m_DefaultReflectionResolution: 128
  m_ReflectionBounces: 1
  m_ReflectionIntensity: 1
  m_CustomReflection: {fileID: 0}
  m_Sun: {fileID: 0}
  m_IndirectSpecularColor: {r: 0, g: 0, b: 0, a: 1}
  m_UseRadianceAmbientProbe: 0
--- !u!157 &3
LightmapSettings:
  m_ObjectHideFlags: 0
  serializedVersion: 11
  m_GIWorkflowMode: 1
  m_GISettings:
    serializedVersion: 2
    m_BounceScale: 1
    m_IndirectOutputScale: 1
    m_AlbedoBoost: 1
    m_EnvironmentLightingMode: 0
    m_EnableBakedLightmaps: 0
    m_EnableRealtimeLightmaps: 0
  m_LightmapEditorSettings:
    serializedVersion: 12
    m_Resolution: 2
    m_BakeResolution: 40
    m_AtlasSize: 1024
    m_AO: 0
    m_AOMaxDistance: 1
    m_CompAOExponent: 1
    m_CompAOExponentDirect: 0
    m_ExtractAmbientOcclusion: 0
    m_Padding: 2
    m_LightmapParameters: {fileID: 0}
    m_LightmapsBakeMode: 1
    m_TextureCompression: 1
    m_FinalGather: 0
    m_FinalGatherFiltering: 1
    m_FinalGatherRayCount: 256
    m_ReflectionCompression: 2
    m_MixedBakeMode: 2
    m_BakeBackend: 1
    m_PVRSampling: 1
    m_PVRDirectSampleCount: 32
    m_PVRSampleCount: 512
    m_PVRBounces: 2
    m_PVREnvironmentSampleCount: 256
    m_PVREnvironmentReferencePointCount: 2048
    m_PVRFilteringMode: 1
    m_PVRDenoiserTypeDirect: 1
    m_PVRDenoiserTypeIndirect: 1
    m_PVRDenoiserTypeAO: 1
    m_PVRFilterTypeDirect: 0
    m_PVRFilterTypeIndirect: 0
    m_PVRFilterTypeAO: 0
    m_PVREnvironmentMIS: 1
    m_PVRCulling: 1
    m_PVRFilteringGaussRadiusDirect: 1
    m_PVRFilteringGaussRadiusIndirect: 5
    m_PVRFilteringGaussRadiusAO: 2
    m_PVRFilteringAtrousPositionSigmaDirect: 0.5
    m_PVRFilteringAtrousPositionSigmaIndirect: 2
    m_PVRFilteringAtrousPositionSigmaAO: 1
    m_ExportTrainingData: 0
    m_TrainingDataDestination: TrainingData
    m_LightProbeSampleCountMultiplier: 4
  m_LightingDataAsset: {fileID: 112000000, guid: b4f9bfc0a624f444988c033a6ccc018a,
    type: 2}
  m_UseShadowmask: 1
--- !u!196 &4
NavMeshSettings:
  serializedVersion: 2
  m_ObjectHideFlags: 0
  m_BuildSettings:
    serializedVersion: 2
    agentTypeID: 0
    agentRadius: 0.5
    agentHeight: 2
    agentSlope: 45
    agentClimb: 0.4
    ledgeDropHeight: 0
    maxJumpAcrossDistance: 0
    minRegionArea: 2
    manualCellSize: 0
    cellSize: 0.16666667
    manualTileSize: 0
    tileSize: 256
    accuratePlacement: 0
    debug:
      m_Flags: 0
  m_NavMeshData: {fileID: 0}
--- !u!1 &90244681
GameObject:
  m_ObjectHideFlags: 0
  m_CorrespondingSourceObject: {fileID: 0}
  m_PrefabInstance: {fileID: 0}
  m_PrefabAsset: {fileID: 0}
  serializedVersion: 6
  m_Component:
  - component: {fileID: 90244682}
  - component: {fileID: 90244684}
  - component: {fileID: 90244683}
  m_Layer: 5
  m_Name: BuildingLogo
  m_TagString: Untagged
  m_Icon: {fileID: 0}
  m_NavMeshLayer: 0
  m_StaticEditorFlags: 0
  m_IsActive: 1
--- !u!224 &90244682
RectTransform:
  m_ObjectHideFlags: 0
  m_CorrespondingSourceObject: {fileID: 0}
  m_PrefabInstance: {fileID: 0}
  m_PrefabAsset: {fileID: 0}
  m_GameObject: {fileID: 90244681}
  m_LocalRotation: {x: -0, y: -0, z: -0, w: 1}
  m_LocalPosition: {x: 0, y: 0, z: 0}
  m_LocalScale: {x: 1, y: 1, z: 1}
  m_Children: []
  m_Father: {fileID: 1898227293}
  m_RootOrder: 0
  m_LocalEulerAnglesHint: {x: 0, y: 0, z: 0}
  m_AnchorMin: {x: 0.5, y: 0.5}
  m_AnchorMax: {x: 0.5, y: 0.5}
  m_AnchoredPosition: {x: 631, y: -104.8}
  m_SizeDelta: {x: 2539.52, y: 1922}
  m_Pivot: {x: 0.5, y: 0.5}
--- !u!114 &90244683
MonoBehaviour:
  m_ObjectHideFlags: 0
  m_CorrespondingSourceObject: {fileID: 0}
  m_PrefabInstance: {fileID: 0}
  m_PrefabAsset: {fileID: 0}
  m_GameObject: {fileID: 90244681}
  m_Enabled: 1
  m_EditorHideFlags: 0
  m_Script: {fileID: 11500000, guid: fe87c0e1cc204ed48ad3b37840f39efc, type: 3}
  m_Name: 
  m_EditorClassIdentifier: 
  m_Material: {fileID: 0}
  m_Color: {r: 1, g: 1, b: 1, a: 0}
  m_RaycastTarget: 0
  m_Maskable: 1
  m_OnCullStateChanged:
    m_PersistentCalls:
      m_Calls: []
  m_Sprite: {fileID: 21300000, guid: 636161a024fa45f42b9b5dc75747eabf, type: 3}
  m_Type: 0
  m_PreserveAspect: 0
  m_FillCenter: 1
  m_FillMethod: 4
  m_FillAmount: 1
  m_FillClockwise: 1
  m_FillOrigin: 0
  m_UseSpriteMesh: 0
  m_PixelsPerUnitMultiplier: 1
--- !u!222 &90244684
CanvasRenderer:
  m_ObjectHideFlags: 0
  m_CorrespondingSourceObject: {fileID: 0}
  m_PrefabInstance: {fileID: 0}
  m_PrefabAsset: {fileID: 0}
  m_GameObject: {fileID: 90244681}
  m_CullTransparentMesh: 0
--- !u!1 &99018150
GameObject:
  m_ObjectHideFlags: 0
  m_CorrespondingSourceObject: {fileID: 0}
  m_PrefabInstance: {fileID: 0}
  m_PrefabAsset: {fileID: 0}
  serializedVersion: 6
  m_Component:
  - component: {fileID: 99018151}
  - component: {fileID: 99018153}
  - component: {fileID: 99018152}
  - component: {fileID: 99018154}
  m_Layer: 5
  m_Name: GameNameLogo
  m_TagString: Untagged
  m_Icon: {fileID: 0}
  m_NavMeshLayer: 0
  m_StaticEditorFlags: 0
  m_IsActive: 1
--- !u!224 &99018151
RectTransform:
  m_ObjectHideFlags: 0
  m_CorrespondingSourceObject: {fileID: 0}
  m_PrefabInstance: {fileID: 0}
  m_PrefabAsset: {fileID: 0}
  m_GameObject: {fileID: 99018150}
  m_LocalRotation: {x: -0, y: -0, z: -0, w: 1}
  m_LocalPosition: {x: 0, y: 0, z: 0}
  m_LocalScale: {x: 1, y: 1, z: 1}
  m_Children: []
  m_Father: {fileID: 1890666490}
  m_RootOrder: 0
  m_LocalEulerAnglesHint: {x: 0, y: 0, z: 0}
  m_AnchorMin: {x: 0.5, y: 0.5}
  m_AnchorMax: {x: 0.5, y: 0.5}
  m_AnchoredPosition: {x: -2800, y: 735}
  m_SizeDelta: {x: 1760, y: 528}
  m_Pivot: {x: 0.5, y: 0.5}
--- !u!114 &99018152
MonoBehaviour:
  m_ObjectHideFlags: 0
  m_CorrespondingSourceObject: {fileID: 0}
  m_PrefabInstance: {fileID: 0}
  m_PrefabAsset: {fileID: 0}
  m_GameObject: {fileID: 99018150}
  m_Enabled: 1
  m_EditorHideFlags: 0
  m_Script: {fileID: 11500000, guid: fe87c0e1cc204ed48ad3b37840f39efc, type: 3}
  m_Name: 
  m_EditorClassIdentifier: 
  m_Material: {fileID: 0}
  m_Color: {r: 1, g: 1, b: 1, a: 1}
  m_RaycastTarget: 0
  m_Maskable: 1
  m_OnCullStateChanged:
    m_PersistentCalls:
      m_Calls: []
  m_Sprite: {fileID: 21300000, guid: 0b78796b0af2c3542807c202c68f6d0f, type: 3}
  m_Type: 0
  m_PreserveAspect: 0
  m_FillCenter: 1
  m_FillMethod: 4
  m_FillAmount: 1
  m_FillClockwise: 1
  m_FillOrigin: 0
  m_UseSpriteMesh: 0
  m_PixelsPerUnitMultiplier: 1
--- !u!222 &99018153
CanvasRenderer:
  m_ObjectHideFlags: 0
  m_CorrespondingSourceObject: {fileID: 0}
  m_PrefabInstance: {fileID: 0}
  m_PrefabAsset: {fileID: 0}
  m_GameObject: {fileID: 99018150}
  m_CullTransparentMesh: 0
--- !u!95 &99018154
Animator:
  serializedVersion: 3
  m_ObjectHideFlags: 0
  m_CorrespondingSourceObject: {fileID: 0}
  m_PrefabInstance: {fileID: 0}
  m_PrefabAsset: {fileID: 0}
  m_GameObject: {fileID: 99018150}
  m_Enabled: 1
  m_Avatar: {fileID: 0}
  m_Controller: {fileID: 9100000, guid: 1e288b5de21d30e41aa83b44d19b7ab5, type: 2}
  m_CullingMode: 0
  m_UpdateMode: 1
  m_ApplyRootMotion: 0
  m_LinearVelocityBlending: 0
  m_WarningMessage: 
  m_HasTransformHierarchy: 1
  m_AllowConstantClipSamplingOptimization: 1
  m_KeepAnimatorControllerStateOnDisable: 0
--- !u!1 &109681145
GameObject:
  m_ObjectHideFlags: 0
  m_CorrespondingSourceObject: {fileID: 0}
  m_PrefabInstance: {fileID: 0}
  m_PrefabAsset: {fileID: 0}
  serializedVersion: 6
  m_Component:
  - component: {fileID: 109681146}
  - component: {fileID: 109681148}
  - component: {fileID: 109681147}
  - component: {fileID: 109681149}
  m_Layer: 5
  m_Name: LoadingPage
  m_TagString: Untagged
  m_Icon: {fileID: 0}
  m_NavMeshLayer: 0
  m_StaticEditorFlags: 0
  m_IsActive: 0
--- !u!224 &109681146
RectTransform:
  m_ObjectHideFlags: 0
  m_CorrespondingSourceObject: {fileID: 0}
  m_PrefabInstance: {fileID: 0}
  m_PrefabAsset: {fileID: 0}
  m_GameObject: {fileID: 109681145}
  m_LocalRotation: {x: -0, y: -0, z: -0, w: 1}
  m_LocalPosition: {x: 0, y: 0, z: 0}
  m_LocalScale: {x: 1, y: 1, z: 1}
  m_Children:
  - {fileID: 1671540427}
  m_Father: {fileID: 1890666490}
  m_RootOrder: 4
  m_LocalEulerAnglesHint: {x: 0, y: 0, z: 0}
  m_AnchorMin: {x: 0, y: 0}
  m_AnchorMax: {x: 1, y: 1}
  m_AnchoredPosition: {x: -0.5, y: -2.8000488}
  m_SizeDelta: {x: 13.03125, y: 10.857178}
  m_Pivot: {x: 0.5, y: 0.5}
--- !u!114 &109681147
MonoBehaviour:
  m_ObjectHideFlags: 0
  m_CorrespondingSourceObject: {fileID: 0}
  m_PrefabInstance: {fileID: 0}
  m_PrefabAsset: {fileID: 0}
  m_GameObject: {fileID: 109681145}
  m_Enabled: 1
  m_EditorHideFlags: 0
  m_Script: {fileID: 11500000, guid: fe87c0e1cc204ed48ad3b37840f39efc, type: 3}
  m_Name: 
  m_EditorClassIdentifier: 
  m_Material: {fileID: 0}
  m_Color: {r: 0, g: 0, b: 0, a: 1}
  m_RaycastTarget: 1
  m_Maskable: 1
  m_OnCullStateChanged:
    m_PersistentCalls:
      m_Calls: []
  m_Sprite: {fileID: 10907, guid: 0000000000000000f000000000000000, type: 0}
  m_Type: 1
  m_PreserveAspect: 0
  m_FillCenter: 1
  m_FillMethod: 4
  m_FillAmount: 1
  m_FillClockwise: 1
  m_FillOrigin: 0
  m_UseSpriteMesh: 0
  m_PixelsPerUnitMultiplier: 1
--- !u!222 &109681148
CanvasRenderer:
  m_ObjectHideFlags: 0
  m_CorrespondingSourceObject: {fileID: 0}
  m_PrefabInstance: {fileID: 0}
  m_PrefabAsset: {fileID: 0}
  m_GameObject: {fileID: 109681145}
  m_CullTransparentMesh: 0
--- !u!114 &109681149
MonoBehaviour:
  m_ObjectHideFlags: 0
  m_CorrespondingSourceObject: {fileID: 0}
  m_PrefabInstance: {fileID: 0}
  m_PrefabAsset: {fileID: 0}
  m_GameObject: {fileID: 109681145}
  m_Enabled: 1
  m_EditorHideFlags: 0
  m_Script: {fileID: 11500000, guid: 1f8bd9a5af54ec64e850f261c5e2b6b1, type: 3}
  m_Name: 
  m_EditorClassIdentifier: 
--- !u!224 &113087137 stripped
RectTransform:
  m_CorrespondingSourceObject: {fileID: 7220603182151507075, guid: 55d927b9ab11dbd41b88bef726968b7a,
    type: 3}
  m_PrefabInstance: {fileID: 5319216363702099295}
  m_PrefabAsset: {fileID: 0}
--- !u!1 &149280681
GameObject:
  m_ObjectHideFlags: 0
  m_CorrespondingSourceObject: {fileID: 0}
  m_PrefabInstance: {fileID: 0}
  m_PrefabAsset: {fileID: 0}
  serializedVersion: 6
  m_Component:
  - component: {fileID: 149280683}
  - component: {fileID: 149280682}
  - component: {fileID: 149280684}
  - component: {fileID: 149280685}
  m_Layer: 0
  m_Name: Global
  m_TagString: Untagged
  m_Icon: {fileID: 0}
  m_NavMeshLayer: 0
  m_StaticEditorFlags: 0
  m_IsActive: 1
--- !u!114 &149280682
MonoBehaviour:
  m_ObjectHideFlags: 0
  m_CorrespondingSourceObject: {fileID: 0}
  m_PrefabInstance: {fileID: 0}
  m_PrefabAsset: {fileID: 0}
  m_GameObject: {fileID: 149280681}
  m_Enabled: 1
  m_EditorHideFlags: 0
  m_Script: {fileID: 11500000, guid: 794996b8f6bd17e498563beb62f1cd2e, type: 3}
  m_Name: 
  m_EditorClassIdentifier: 
  BuildSystemSettings: {fileID: 11400000, guid: 298a00598d4f17e46818dd0bce0baee4,
    type: 2}
  RuntimeMode: 0
--- !u!4 &149280683
Transform:
  m_ObjectHideFlags: 0
  m_CorrespondingSourceObject: {fileID: 0}
  m_PrefabInstance: {fileID: 0}
  m_PrefabAsset: {fileID: 0}
  m_GameObject: {fileID: 149280681}
  m_LocalRotation: {x: 0, y: 0, z: 0, w: 1}
  m_LocalPosition: {x: 0, y: 0, z: 0}
  m_LocalScale: {x: 1, y: 1, z: 1}
  m_Children: []
  m_Father: {fileID: 0}
  m_RootOrder: 3
  m_LocalEulerAnglesHint: {x: 0, y: 0, z: 0}
--- !u!114 &149280684
MonoBehaviour:
  m_ObjectHideFlags: 0
  m_CorrespondingSourceObject: {fileID: 0}
  m_PrefabInstance: {fileID: 0}
  m_PrefabAsset: {fileID: 0}
  m_GameObject: {fileID: 149280681}
  m_Enabled: 1
  m_EditorHideFlags: 0
  m_Script: {fileID: 11500000, guid: efa70fe163046a945baae70e93933acc, type: 3}
  m_Name: 
  m_EditorClassIdentifier: 
  LanguageSetting: {fileID: 11400000, guid: 149cad189fc4c1f47aaaf7a342db2556, type: 2}
  Fonts:
  - {fileID: 11400000, guid: dcdd5e6ba74ef32449e04fed7e660ad5, type: 2}
  - {fileID: 11400000, guid: 12a828ef1b80660419cdddee57acfc69, type: 2}
--- !u!114 &149280685
MonoBehaviour:
  m_ObjectHideFlags: 0
  m_CorrespondingSourceObject: {fileID: 0}
  m_PrefabInstance: {fileID: 0}
  m_PrefabAsset: {fileID: 0}
  m_GameObject: {fileID: 149280681}
  m_Enabled: 1
  m_EditorHideFlags: 0
  m_Script: {fileID: 11500000, guid: c3b0a90c81ce4544ba2d6efe32b116c7, type: 3}
  m_Name: 
  m_EditorClassIdentifier: 
  Settings:
  - {fileID: 11400000, guid: 4f4104485ff45fb4e952a07797e70cf1, type: 2}
  - {fileID: 11400000, guid: 149cad189fc4c1f47aaaf7a342db2556, type: 2}
  - {fileID: 11400000, guid: fe4542ca140122a4f99b682fe41de5b7, type: 2}
  - {fileID: 11400000, guid: ac32d1e87559bef4997b3151c8f5a71f, type: 2}
  - {fileID: 11400000, guid: b397626a12767174f90d12ff5ec9dfbb, type: 2}
--- !u!224 &154400301 stripped
RectTransform:
  m_CorrespondingSourceObject: {fileID: 5565608697053715065, guid: 325b208f8125803439f2014668fb4698,
    type: 3}
  m_PrefabInstance: {fileID: 6978354906472316713}
  m_PrefabAsset: {fileID: 0}
--- !u!1 &380114651
GameObject:
  m_ObjectHideFlags: 0
  m_CorrespondingSourceObject: {fileID: 0}
  m_PrefabInstance: {fileID: 0}
  m_PrefabAsset: {fileID: 0}
  serializedVersion: 6
  m_Component:
  - component: {fileID: 380114654}
  - component: {fileID: 380114653}
  - component: {fileID: 380114652}
  m_Layer: 0
  m_Name: EventSystem
  m_TagString: Untagged
  m_Icon: {fileID: 0}
  m_NavMeshLayer: 0
  m_StaticEditorFlags: 0
  m_IsActive: 1
--- !u!114 &380114652
MonoBehaviour:
  m_ObjectHideFlags: 0
  m_CorrespondingSourceObject: {fileID: 0}
  m_PrefabInstance: {fileID: 0}
  m_PrefabAsset: {fileID: 0}
  m_GameObject: {fileID: 380114651}
  m_Enabled: 1
  m_EditorHideFlags: 0
  m_Script: {fileID: 11500000, guid: 4f231c4fb786f3946a6b90b886c48677, type: 3}
  m_Name: 
  m_EditorClassIdentifier: 
  m_HorizontalAxis: Horizontal
  m_VerticalAxis: Vertical
  m_SubmitButton: Submit
  m_CancelButton: Cancel
  m_InputActionsPerSecond: 10
  m_RepeatDelay: 0.5
  m_ForceModuleActive: 0
--- !u!114 &380114653
MonoBehaviour:
  m_ObjectHideFlags: 0
  m_CorrespondingSourceObject: {fileID: 0}
  m_PrefabInstance: {fileID: 0}
  m_PrefabAsset: {fileID: 0}
  m_GameObject: {fileID: 380114651}
  m_Enabled: 1
  m_EditorHideFlags: 0
  m_Script: {fileID: 11500000, guid: 76c392e42b5098c458856cdf6ecaaaa1, type: 3}
  m_Name: 
  m_EditorClassIdentifier: 
  m_FirstSelected: {fileID: 0}
  m_sendNavigationEvents: 1
  m_DragThreshold: 10
--- !u!4 &380114654
Transform:
  m_ObjectHideFlags: 0
  m_CorrespondingSourceObject: {fileID: 0}
  m_PrefabInstance: {fileID: 0}
  m_PrefabAsset: {fileID: 0}
  m_GameObject: {fileID: 380114651}
  m_LocalRotation: {x: 0, y: 0, z: 0, w: 1}
  m_LocalPosition: {x: 0, y: 0, z: 0}
  m_LocalScale: {x: 1, y: 1, z: 1}
  m_Children: []
  m_Father: {fileID: 0}
  m_RootOrder: 2
  m_LocalEulerAnglesHint: {x: 0, y: 0, z: 0}
--- !u!224 &387850632 stripped
RectTransform:
  m_CorrespondingSourceObject: {fileID: 6857336423074432125, guid: ee848a5b7592c56499fde82fa5b65300,
    type: 3}
  m_PrefabInstance: {fileID: 8272897470674646662}
  m_PrefabAsset: {fileID: 0}
--- !u!224 &514913003 stripped
RectTransform:
  m_CorrespondingSourceObject: {fileID: 4143005906943201206, guid: ee9956e78df47c1489d06eb112c94620,
    type: 3}
  m_PrefabInstance: {fileID: 1485047289015053856}
  m_PrefabAsset: {fileID: 0}
--- !u!1 &521042325 stripped
GameObject:
  m_CorrespondingSourceObject: {fileID: 9113820303190627562, guid: 8126f563deb9fc446973d71a49c09b23,
    type: 3}
  m_PrefabInstance: {fileID: 9113820302972153215}
  m_PrefabAsset: {fileID: 0}
--- !u!224 &521042326 stripped
RectTransform:
  m_CorrespondingSourceObject: {fileID: 9113820303190627561, guid: 8126f563deb9fc446973d71a49c09b23,
    type: 3}
  m_PrefabInstance: {fileID: 9113820302972153215}
  m_PrefabAsset: {fileID: 0}
--- !u!1 &536744930
GameObject:
  m_ObjectHideFlags: 0
  m_CorrespondingSourceObject: {fileID: 0}
  m_PrefabInstance: {fileID: 0}
  m_PrefabAsset: {fileID: 0}
  serializedVersion: 6
  m_Component:
  - component: {fileID: 536744933}
  - component: {fileID: 536744932}
  - component: {fileID: 536744931}
  m_Layer: 0
  m_Name: Main Camera
  m_TagString: MainCamera
  m_Icon: {fileID: 0}
  m_NavMeshLayer: 0
  m_StaticEditorFlags: 0
  m_IsActive: 1
--- !u!81 &536744931
AudioListener:
  m_ObjectHideFlags: 0
  m_CorrespondingSourceObject: {fileID: 0}
  m_PrefabInstance: {fileID: 0}
  m_PrefabAsset: {fileID: 0}
  m_GameObject: {fileID: 536744930}
  m_Enabled: 1
--- !u!20 &536744932
Camera:
  m_ObjectHideFlags: 0
  m_CorrespondingSourceObject: {fileID: 0}
  m_PrefabInstance: {fileID: 0}
  m_PrefabAsset: {fileID: 0}
  m_GameObject: {fileID: 536744930}
  m_Enabled: 1
  serializedVersion: 2
  m_ClearFlags: 2
  m_BackGroundColor: {r: 0.8301887, g: 0.60683936, b: 0.039159838, a: 1}
  m_projectionMatrixMode: 1
  m_GateFitMode: 2
  m_FOVAxisMode: 0
  m_SensorSize: {x: 36, y: 24}
  m_LensShift: {x: 0, y: 0}
  m_FocalLength: 50
  m_NormalizedViewPortRect:
    serializedVersion: 2
    x: 0
    y: 0
    width: 1
    height: 1
  near clip plane: 0.3
  far clip plane: 1000
  field of view: 60
  orthographic: 1
  orthographic size: 10.79
  m_Depth: -1
  m_CullingMask:
    serializedVersion: 2
    m_Bits: 4294967295
  m_RenderingPath: -1
  m_TargetTexture: {fileID: 0}
  m_TargetDisplay: 0
  m_TargetEye: 3
  m_HDR: 1
  m_AllowMSAA: 1
  m_AllowDynamicResolution: 0
  m_ForceIntoRT: 0
  m_OcclusionCulling: 1
  m_StereoConvergence: 10
  m_StereoSeparation: 0.022
--- !u!4 &536744933
Transform:
  m_ObjectHideFlags: 0
  m_CorrespondingSourceObject: {fileID: 0}
  m_PrefabInstance: {fileID: 0}
  m_PrefabAsset: {fileID: 0}
  m_GameObject: {fileID: 536744930}
  m_LocalRotation: {x: 0, y: 0, z: 0, w: 1}
  m_LocalPosition: {x: 0, y: 0, z: 0}
  m_LocalScale: {x: 1, y: 1, z: 1}
  m_Children: []
  m_Father: {fileID: 0}
  m_RootOrder: 0
  m_LocalEulerAnglesHint: {x: 0, y: 0, z: 0}
--- !u!1 &1009109304 stripped
GameObject:
  m_CorrespondingSourceObject: {fileID: 3933712356246075707, guid: c327810ecc69fa448ae73d455b41268f,
    type: 3}
  m_PrefabInstance: {fileID: 3933712356449284099}
  m_PrefabAsset: {fileID: 0}
--- !u!224 &1009109305 stripped
RectTransform:
  m_CorrespondingSourceObject: {fileID: 3933712356246075706, guid: c327810ecc69fa448ae73d455b41268f,
    type: 3}
  m_PrefabInstance: {fileID: 3933712356449284099}
  m_PrefabAsset: {fileID: 0}
--- !u!1 &1671540426
GameObject:
  m_ObjectHideFlags: 0
  m_CorrespondingSourceObject: {fileID: 0}
  m_PrefabInstance: {fileID: 0}
  m_PrefabAsset: {fileID: 0}
  serializedVersion: 6
  m_Component:
  - component: {fileID: 1671540427}
  - component: {fileID: 1671540429}
  - component: {fileID: 1671540428}
  m_Layer: 5
  m_Name: Text (TMP)
  m_TagString: Untagged
  m_Icon: {fileID: 0}
  m_NavMeshLayer: 0
  m_StaticEditorFlags: 0
  m_IsActive: 1
--- !u!224 &1671540427
RectTransform:
  m_ObjectHideFlags: 0
  m_CorrespondingSourceObject: {fileID: 0}
  m_PrefabInstance: {fileID: 0}
  m_PrefabAsset: {fileID: 0}
  m_GameObject: {fileID: 1671540426}
  m_LocalRotation: {x: 0, y: 0, z: 0, w: 1}
  m_LocalPosition: {x: 0, y: 0, z: 0}
  m_LocalScale: {x: 1, y: 1, z: 1}
  m_Children: []
  m_Father: {fileID: 109681146}
  m_RootOrder: 0
  m_LocalEulerAnglesHint: {x: 0, y: 0, z: 0}
  m_AnchorMin: {x: 0.5, y: 0.5}
  m_AnchorMax: {x: 0.5, y: 0.5}
  m_AnchoredPosition: {x: 1369, y: -870}
  m_SizeDelta: {x: 1000, y: 120}
  m_Pivot: {x: 0.5, y: 0.5}
--- !u!114 &1671540428
MonoBehaviour:
  m_ObjectHideFlags: 0
  m_CorrespondingSourceObject: {fileID: 0}
  m_PrefabInstance: {fileID: 0}
  m_PrefabAsset: {fileID: 0}
  m_GameObject: {fileID: 1671540426}
  m_Enabled: 1
  m_EditorHideFlags: 0
  m_Script: {fileID: 11500000, guid: 4cd956360678df3468fad905b5cf59a1, type: 3}
  m_Name: 
  m_EditorClassIdentifier: 
  m_Material: {fileID: 0}
  m_Color: {r: 1, g: 1, b: 1, a: 1}
  m_RaycastTarget: 1
  m_Maskable: 1
  m_OnCullStateChanged:
    m_PersistentCalls:
      m_Calls: []
  m_text: UITEXT.LOADING
  m_isRightToLeft: 0
  m_fontAsset: {fileID: 11400000, guid: dcdd5e6ba74ef32449e04fed7e660ad5, type: 2}
  m_sharedMaterial: {fileID: 4567752287786908884, guid: dcdd5e6ba74ef32449e04fed7e660ad5,
    type: 2}
  m_fontSharedMaterials: []
  m_fontMaterial: {fileID: 0}
  m_fontMaterials: []
  m_fontColor32:
    serializedVersion: 2
    rgba: 4294967295
  m_fontColor: {r: 1, g: 1, b: 1, a: 1}
  m_enableVertexGradient: 0
  m_colorMode: 3
  m_fontColorGradient:
    topLeft: {r: 1, g: 1, b: 1, a: 1}
    topRight: {r: 1, g: 1, b: 1, a: 1}
    bottomLeft: {r: 1, g: 1, b: 1, a: 1}
    bottomRight: {r: 1, g: 1, b: 1, a: 1}
  m_fontColorGradientPreset: {fileID: 0}
  m_spriteAsset: {fileID: 0}
  m_tintAllSprites: 0
  m_overrideHtmlColors: 0
  m_faceColor:
    serializedVersion: 2
    rgba: 4294967295
  m_outlineColor:
    serializedVersion: 2
    rgba: 4278190080
  m_fontSize: 120
  m_fontSizeBase: 120
  m_fontWeight: 400
  m_enableAutoSizing: 0
  m_fontSizeMin: 18
  m_fontSizeMax: 72
  m_fontStyle: 16
  m_textAlignment: 516
  m_characterSpacing: 0
  m_wordSpacing: 0
  m_lineSpacing: 0
  m_lineSpacingMax: 0
  m_paragraphSpacing: 0
  m_charWidthMaxAdj: 0
  m_enableWordWrapping: 0
  m_wordWrappingRatios: 0.4
  m_overflowMode: 0
  m_firstOverflowCharacterIndex: 0
  m_linkedTextComponent: {fileID: 0}
  m_isLinkedTextComponent: 0
  m_isTextTruncated: 0
  m_enableKerning: 1
  m_enableExtraPadding: 0
  checkPaddingRequired: 0
  m_isRichText: 1
  m_parseCtrlCharacters: 1
  m_isOrthographic: 1
  m_isCullingEnabled: 0
  m_ignoreRectMaskCulling: 0
  m_ignoreCulling: 1
  m_horizontalMapping: 0
  m_verticalMapping: 0
  m_uvLineOffset: 0
  m_geometrySortingOrder: 0
  m_VertexBufferAutoSizeReduction: 1
  m_firstVisibleCharacter: 0
  m_useMaxVisibleDescender: 1
  m_pageToDisplay: 1
  m_margin: {x: 0, y: 0, z: 0, w: 0}
  m_textInfo:
    textComponent: {fileID: 1671540428}
    characterCount: 14
    spriteCount: 0
    spaceCount: 0
    wordCount: 2
    linkCount: 0
    lineCount: 1
    pageCount: 1
    materialCount: 1
  m_isUsingLegacyAnimationComponent: 0
  m_isVolumetricText: 0
  m_spriteAnimator: {fileID: 0}
  m_hasFontAssetChanged: 0
  m_subTextObjects:
  - {fileID: 0}
  - {fileID: 0}
  - {fileID: 0}
  - {fileID: 0}
  - {fileID: 0}
  - {fileID: 0}
  - {fileID: 0}
  - {fileID: 0}
  m_baseMaterial: {fileID: 0}
  m_maskOffset: {x: 0, y: 0, z: 0, w: 0}
  uiText: 0
--- !u!222 &1671540429
CanvasRenderer:
  m_ObjectHideFlags: 0
  m_CorrespondingSourceObject: {fileID: 0}
  m_PrefabInstance: {fileID: 0}
  m_PrefabAsset: {fileID: 0}
  m_GameObject: {fileID: 1671540426}
  m_CullTransparentMesh: 0
--- !u!1 &1890666486
GameObject:
  m_ObjectHideFlags: 0
  m_CorrespondingSourceObject: {fileID: 0}
  m_PrefabInstance: {fileID: 0}
  m_PrefabAsset: {fileID: 0}
  serializedVersion: 6
  m_Component:
  - component: {fileID: 1890666490}
  - component: {fileID: 1890666489}
  - component: {fileID: 1890666488}
  - component: {fileID: 1890666487}
  - component: {fileID: 1890666491}
  - component: {fileID: 1890666493}
  - component: {fileID: 1890666492}
  m_Layer: 5
  m_Name: MainUI
  m_TagString: Untagged
  m_Icon: {fileID: 0}
  m_NavMeshLayer: 0
  m_StaticEditorFlags: 0
  m_IsActive: 1
--- !u!114 &1890666487
MonoBehaviour:
  m_ObjectHideFlags: 0
  m_CorrespondingSourceObject: {fileID: 0}
  m_PrefabInstance: {fileID: 0}
  m_PrefabAsset: {fileID: 0}
  m_GameObject: {fileID: 1890666486}
  m_Enabled: 1
  m_EditorHideFlags: 0
  m_Script: {fileID: 11500000, guid: dc42784cf147c0c48a680349fa168899, type: 3}
  m_Name: 
  m_EditorClassIdentifier: 
  m_IgnoreReversedGraphics: 1
  m_BlockingObjects: 0
  m_BlockingMask:
    serializedVersion: 2
    m_Bits: 4294967295
--- !u!114 &1890666488
MonoBehaviour:
  m_ObjectHideFlags: 0
  m_CorrespondingSourceObject: {fileID: 0}
  m_PrefabInstance: {fileID: 0}
  m_PrefabAsset: {fileID: 0}
  m_GameObject: {fileID: 1890666486}
  m_Enabled: 1
  m_EditorHideFlags: 0
  m_Script: {fileID: 11500000, guid: 0cd44c1031e13a943bb63640046fad76, type: 3}
  m_Name: 
  m_EditorClassIdentifier: 
  m_UiScaleMode: 1
  m_ReferencePixelsPerUnit: 100
  m_ScaleFactor: 1
  m_ReferenceResolution: {x: 3840, y: 2160}
  m_ScreenMatchMode: 0
  m_MatchWidthOrHeight: 0
  m_PhysicalUnit: 3
  m_FallbackScreenDPI: 96
  m_DefaultSpriteDPI: 96
  m_DynamicPixelsPerUnit: 1
--- !u!223 &1890666489
Canvas:
  m_ObjectHideFlags: 0
  m_CorrespondingSourceObject: {fileID: 0}
  m_PrefabInstance: {fileID: 0}
  m_PrefabAsset: {fileID: 0}
  m_GameObject: {fileID: 1890666486}
  m_Enabled: 1
  serializedVersion: 3
  m_RenderMode: 0
  m_Camera: {fileID: 0}
  m_PlaneDistance: 100
  m_PixelPerfect: 0
  m_ReceivesEvents: 1
  m_OverrideSorting: 0
  m_OverridePixelPerfect: 0
  m_SortingBucketNormalizedSize: 0
  m_AdditionalShaderChannelsFlag: 25
  m_SortingLayerID: 0
  m_SortingOrder: 0
  m_TargetDisplay: 0
--- !u!224 &1890666490
RectTransform:
  m_ObjectHideFlags: 0
  m_CorrespondingSourceObject: {fileID: 0}
  m_PrefabInstance: {fileID: 0}
  m_PrefabAsset: {fileID: 0}
  m_GameObject: {fileID: 1890666486}
  m_LocalRotation: {x: 0, y: 0, z: 0, w: 1}
  m_LocalPosition: {x: 0, y: 0, z: 0}
  m_LocalScale: {x: 0, y: 0, z: 0}
  m_Children:
  - {fileID: 99018151}
  - {fileID: 1898227293}
  - {fileID: 1009109305}
  - {fileID: 521042326}
  - {fileID: 109681146}
  m_Father: {fileID: 0}
  m_RootOrder: 1
  m_LocalEulerAnglesHint: {x: 0, y: 0, z: 0}
  m_AnchorMin: {x: 0, y: 0}
  m_AnchorMax: {x: 0, y: 0}
  m_AnchoredPosition: {x: 0, y: 0}
  m_SizeDelta: {x: 0, y: 0}
  m_Pivot: {x: 0, y: 0}
--- !u!114 &1890666491
MonoBehaviour:
  m_ObjectHideFlags: 0
  m_CorrespondingSourceObject: {fileID: 0}
  m_PrefabInstance: {fileID: 0}
  m_PrefabAsset: {fileID: 0}
  m_GameObject: {fileID: 1890666486}
  m_Enabled: 1
  m_EditorHideFlags: 0
  m_Script: {fileID: 11500000, guid: cca2228b035a55141b384f463c5f9abc, type: 3}
  m_Name: 
  m_EditorClassIdentifier: 
  Menus:
    Items:
    - Key: 0
      Value: {fileID: 1898227292}
    - Key: 1
      Value: {fileID: 1009109304}
    - Key: 2
      Value: {fileID: 521042325}
    - Key: 3
      Value: {fileID: 109681145}
--- !u!114 &1890666492
MonoBehaviour:
  m_ObjectHideFlags: 0
  m_CorrespondingSourceObject: {fileID: 0}
  m_PrefabInstance: {fileID: 0}
  m_PrefabAsset: {fileID: 0}
  m_GameObject: {fileID: 1890666486}
  m_Enabled: 1
  m_EditorHideFlags: 0
  m_Script: {fileID: 11500000, guid: fe87c0e1cc204ed48ad3b37840f39efc, type: 3}
  m_Name: 
  m_EditorClassIdentifier: 
  m_Material: {fileID: 0}
  m_Color: {r: 1, g: 1, b: 1, a: 1}
  m_RaycastTarget: 0
  m_Maskable: 1
  m_OnCullStateChanged:
    m_PersistentCalls:
      m_Calls: []
  m_Sprite: {fileID: 21300000, guid: 5224f35046e190d44998825c4cc7d5b5, type: 3}
  m_Type: 0
  m_PreserveAspect: 0
  m_FillCenter: 1
  m_FillMethod: 4
  m_FillAmount: 1
  m_FillClockwise: 1
  m_FillOrigin: 0
  m_UseSpriteMesh: 0
  m_PixelsPerUnitMultiplier: 1
--- !u!222 &1890666493
CanvasRenderer:
  m_ObjectHideFlags: 0
  m_CorrespondingSourceObject: {fileID: 0}
  m_PrefabInstance: {fileID: 0}
  m_PrefabAsset: {fileID: 0}
  m_GameObject: {fileID: 1890666486}
  m_CullTransparentMesh: 0
--- !u!1 &1898227292
GameObject:
  m_ObjectHideFlags: 0
  m_CorrespondingSourceObject: {fileID: 0}
  m_PrefabInstance: {fileID: 0}
  m_PrefabAsset: {fileID: 0}
  serializedVersion: 6
  m_Component:
  - component: {fileID: 1898227293}
  - component: {fileID: 1898227294}
  - component: {fileID: 1898227295}
  m_Layer: 5
  m_Name: MainMenu
  m_TagString: Untagged
  m_Icon: {fileID: 0}
  m_NavMeshLayer: 0
  m_StaticEditorFlags: 0
  m_IsActive: 1
--- !u!224 &1898227293
RectTransform:
  m_ObjectHideFlags: 0
  m_CorrespondingSourceObject: {fileID: 0}
  m_PrefabInstance: {fileID: 0}
  m_PrefabAsset: {fileID: 0}
  m_GameObject: {fileID: 1898227292}
  m_LocalRotation: {x: 0, y: 0, z: 0, w: 1}
  m_LocalPosition: {x: 0, y: 0, z: 0}
  m_LocalScale: {x: 1, y: 1, z: 1}
  m_Children:
  - {fileID: 90244682}
  - {fileID: 2063066495}
  m_Father: {fileID: 1890666490}
  m_RootOrder: 1
  m_LocalEulerAnglesHint: {x: 0, y: 0, z: 0}
  m_AnchorMin: {x: 0, y: 0}
  m_AnchorMax: {x: 1, y: 1}
  m_AnchoredPosition: {x: 0, y: 0}
  m_SizeDelta: {x: 0, y: 0}
  m_Pivot: {x: 0.5, y: 0.5}
--- !u!95 &1898227294
Animator:
  serializedVersion: 3
  m_ObjectHideFlags: 0
  m_CorrespondingSourceObject: {fileID: 0}
  m_PrefabInstance: {fileID: 0}
  m_PrefabAsset: {fileID: 0}
  m_GameObject: {fileID: 1898227292}
  m_Enabled: 1
  m_Avatar: {fileID: 0}
  m_Controller: {fileID: 9100000, guid: c9e58705c0967894fb79736526da910e, type: 2}
  m_CullingMode: 0
  m_UpdateMode: 1
  m_ApplyRootMotion: 0
  m_LinearVelocityBlending: 0
  m_WarningMessage: 
  m_HasTransformHierarchy: 1
  m_AllowConstantClipSamplingOptimization: 1
  m_KeepAnimatorControllerStateOnDisable: 0
--- !u!114 &1898227295
MonoBehaviour:
  m_ObjectHideFlags: 0
  m_CorrespondingSourceObject: {fileID: 0}
  m_PrefabInstance: {fileID: 0}
  m_PrefabAsset: {fileID: 0}
  m_GameObject: {fileID: 1898227292}
  m_Enabled: 1
  m_EditorHideFlags: 0
  m_Script: {fileID: 11500000, guid: c8798e44f2532804fa247f33fd94999d, type: 3}
  m_Name: 
  m_EditorClassIdentifier: 
--- !u!1 &2063066494
GameObject:
  m_ObjectHideFlags: 0
  m_CorrespondingSourceObject: {fileID: 0}
  m_PrefabInstance: {fileID: 0}
  m_PrefabAsset: {fileID: 0}
  serializedVersion: 6
  m_Component:
  - component: {fileID: 2063066495}
  m_Layer: 5
  m_Name: MainMenuButtonsGroup
  m_TagString: Untagged
  m_Icon: {fileID: 0}
  m_NavMeshLayer: 0
  m_StaticEditorFlags: 0
  m_IsActive: 1
--- !u!224 &2063066495
RectTransform:
  m_ObjectHideFlags: 0
  m_CorrespondingSourceObject: {fileID: 0}
  m_PrefabInstance: {fileID: 0}
  m_PrefabAsset: {fileID: 0}
  m_GameObject: {fileID: 2063066494}
  m_LocalRotation: {x: -0, y: -0, z: -0, w: 1}
  m_LocalPosition: {x: 0, y: 0, z: 0}
  m_LocalScale: {x: 1, y: 1, z: 1}
  m_Children:
  - {fileID: 387850632}
  - {fileID: 154400301}
  - {fileID: 113087137}
  - {fileID: 514913003}
  m_Father: {fileID: 1898227293}
  m_RootOrder: 1
  m_LocalEulerAnglesHint: {x: 0, y: 0, z: 0}
  m_AnchorMin: {x: 0, y: 0.5}
  m_AnchorMax: {x: 0, y: 0.5}
  m_AnchoredPosition: {x: 1920, y: -360}
  m_SizeDelta: {x: 3839.9868, y: 938.60767}
  m_Pivot: {x: 0.5, y: 0.5}
--- !u!1001 &1485047289015053856
PrefabInstance:
  m_ObjectHideFlags: 0
  serializedVersion: 2
  m_Modification:
    m_TransformParent: {fileID: 2063066495}
    m_Modifications:
    - target: {fileID: 137987723275794427, guid: ee9956e78df47c1489d06eb112c94620,
        type: 3}
      propertyPath: m_Enabled
      value: 1
      objectReference: {fileID: 0}
    - target: {fileID: 137987723275794427, guid: ee9956e78df47c1489d06eb112c94620,
        type: 3}
      propertyPath: m_text
      value: UITEXT.EXIT
      objectReference: {fileID: 0}
    - target: {fileID: 137987723275794427, guid: ee9956e78df47c1489d06eb112c94620,
        type: 3}
      propertyPath: m_textInfo.characterCount
      value: 11
      objectReference: {fileID: 0}
    - target: {fileID: 137987723275794427, guid: ee9956e78df47c1489d06eb112c94620,
        type: 3}
      propertyPath: m_textInfo.wordCount
      value: 2
      objectReference: {fileID: 0}
    - target: {fileID: 137987723275794427, guid: ee9956e78df47c1489d06eb112c94620,
        type: 3}
      propertyPath: m_textInfo.lineCount
      value: 1
      objectReference: {fileID: 0}
    - target: {fileID: 137987723275794427, guid: ee9956e78df47c1489d06eb112c94620,
        type: 3}
      propertyPath: m_textInfo.pageCount
      value: 1
      objectReference: {fileID: 0}
    - target: {fileID: 137987723275794427, guid: ee9956e78df47c1489d06eb112c94620,
        type: 3}
      propertyPath: m_textAlignment
      value: 513
      objectReference: {fileID: 0}
    - target: {fileID: 137987723275794427, guid: ee9956e78df47c1489d06eb112c94620,
        type: 3}
      propertyPath: uiText
      value: 10
      objectReference: {fileID: 0}
    - target: {fileID: 137987723275794427, guid: ee9956e78df47c1489d06eb112c94620,
        type: 3}
      propertyPath: m_fontAsset
      value: 
      objectReference: {fileID: 11400000, guid: 12a828ef1b80660419cdddee57acfc69,
        type: 2}
    - target: {fileID: 137987723275794427, guid: ee9956e78df47c1489d06eb112c94620,
        type: 3}
      propertyPath: m_sharedMaterial
      value: 
      objectReference: {fileID: -2757185516951084293, guid: 12a828ef1b80660419cdddee57acfc69,
        type: 2}
    - target: {fileID: 904501953437217905, guid: ee9956e78df47c1489d06eb112c94620,
        type: 3}
      propertyPath: m_OnClick.m_PersistentCalls.m_Calls.Array.data[0].m_Target
      value: 
      objectReference: {fileID: 1898227295}
    - target: {fileID: 904501953437217905, guid: ee9956e78df47c1489d06eb112c94620,
        type: 3}
      propertyPath: m_Navigation.m_Mode
      value: 0
      objectReference: {fileID: 0}
    - target: {fileID: 4143005906943201206, guid: ee9956e78df47c1489d06eb112c94620,
        type: 3}
      propertyPath: m_LocalPosition.x
      value: 0
      objectReference: {fileID: 0}
    - target: {fileID: 4143005906943201206, guid: ee9956e78df47c1489d06eb112c94620,
        type: 3}
      propertyPath: m_LocalPosition.y
      value: 0
      objectReference: {fileID: 0}
    - target: {fileID: 4143005906943201206, guid: ee9956e78df47c1489d06eb112c94620,
        type: 3}
      propertyPath: m_LocalPosition.z
      value: 0
      objectReference: {fileID: 0}
    - target: {fileID: 4143005906943201206, guid: ee9956e78df47c1489d06eb112c94620,
        type: 3}
      propertyPath: m_LocalRotation.x
      value: 0
      objectReference: {fileID: 0}
    - target: {fileID: 4143005906943201206, guid: ee9956e78df47c1489d06eb112c94620,
        type: 3}
      propertyPath: m_LocalRotation.y
      value: 0
      objectReference: {fileID: 0}
    - target: {fileID: 4143005906943201206, guid: ee9956e78df47c1489d06eb112c94620,
        type: 3}
      propertyPath: m_LocalRotation.z
      value: 0
      objectReference: {fileID: 0}
    - target: {fileID: 4143005906943201206, guid: ee9956e78df47c1489d06eb112c94620,
        type: 3}
      propertyPath: m_LocalRotation.w
      value: 1
      objectReference: {fileID: 0}
    - target: {fileID: 4143005906943201206, guid: ee9956e78df47c1489d06eb112c94620,
        type: 3}
      propertyPath: m_RootOrder
      value: 3
      objectReference: {fileID: 0}
    - target: {fileID: 4143005906943201206, guid: ee9956e78df47c1489d06eb112c94620,
        type: 3}
      propertyPath: m_LocalEulerAnglesHint.x
      value: 0
      objectReference: {fileID: 0}
    - target: {fileID: 4143005906943201206, guid: ee9956e78df47c1489d06eb112c94620,
        type: 3}
      propertyPath: m_LocalEulerAnglesHint.y
      value: 0
      objectReference: {fileID: 0}
    - target: {fileID: 4143005906943201206, guid: ee9956e78df47c1489d06eb112c94620,
        type: 3}
      propertyPath: m_LocalEulerAnglesHint.z
      value: 0
      objectReference: {fileID: 0}
    - target: {fileID: 4143005906943201206, guid: ee9956e78df47c1489d06eb112c94620,
        type: 3}
      propertyPath: m_AnchoredPosition.x
      value: -626.5
      objectReference: {fileID: 0}
    - target: {fileID: 4143005906943201206, guid: ee9956e78df47c1489d06eb112c94620,
        type: 3}
      propertyPath: m_AnchoredPosition.y
      value: -785.5
      objectReference: {fileID: 0}
    - target: {fileID: 4143005906943201206, guid: ee9956e78df47c1489d06eb112c94620,
        type: 3}
      propertyPath: m_SizeDelta.x
      value: 1253
      objectReference: {fileID: 0}
    - target: {fileID: 4143005906943201206, guid: ee9956e78df47c1489d06eb112c94620,
        type: 3}
      propertyPath: m_SizeDelta.y
      value: 219
      objectReference: {fileID: 0}
    - target: {fileID: 4143005906943201206, guid: ee9956e78df47c1489d06eb112c94620,
        type: 3}
      propertyPath: m_AnchorMin.x
      value: 0
      objectReference: {fileID: 0}
    - target: {fileID: 4143005906943201206, guid: ee9956e78df47c1489d06eb112c94620,
        type: 3}
      propertyPath: m_AnchorMin.y
      value: 1
      objectReference: {fileID: 0}
    - target: {fileID: 4143005906943201206, guid: ee9956e78df47c1489d06eb112c94620,
        type: 3}
      propertyPath: m_AnchorMax.x
      value: 0
      objectReference: {fileID: 0}
    - target: {fileID: 4143005906943201206, guid: ee9956e78df47c1489d06eb112c94620,
        type: 3}
      propertyPath: m_AnchorMax.y
      value: 1
      objectReference: {fileID: 0}
    - target: {fileID: 4143005906943201206, guid: ee9956e78df47c1489d06eb112c94620,
        type: 3}
      propertyPath: m_Pivot.x
      value: 0.5
      objectReference: {fileID: 0}
    - target: {fileID: 4143005906943201206, guid: ee9956e78df47c1489d06eb112c94620,
        type: 3}
      propertyPath: m_Pivot.y
      value: 0.5
      objectReference: {fileID: 0}
    - target: {fileID: 4704755157588255877, guid: ee9956e78df47c1489d06eb112c94620,
        type: 3}
      propertyPath: m_Name
      value: QuitGameButton
      objectReference: {fileID: 0}
    - target: {fileID: 8105985741765880903, guid: ee9956e78df47c1489d06eb112c94620,
        type: 3}
      propertyPath: m_Enabled
      value: 1
      objectReference: {fileID: 0}
    m_RemovedComponents: []
  m_SourcePrefab: {fileID: 100100000, guid: ee9956e78df47c1489d06eb112c94620, type: 3}
--- !u!1001 &3933712356449284099
PrefabInstance:
  m_ObjectHideFlags: 0
  serializedVersion: 2
  m_Modification:
    m_TransformParent: {fileID: 1890666490}
    m_Modifications:
    - target: {fileID: 3933712355643422161, guid: c327810ecc69fa448ae73d455b41268f,
        type: 3}
      propertyPath: m_AnchorMin.x
      value: 0.000000047555567
      objectReference: {fileID: 0}
    - target: {fileID: 3933712355643422161, guid: c327810ecc69fa448ae73d455b41268f,
        type: 3}
      propertyPath: m_AnchorMax.x
      value: 0.37399247
      objectReference: {fileID: 0}
    - target: {fileID: 3933712355643422161, guid: c327810ecc69fa448ae73d455b41268f,
        type: 3}
      propertyPath: m_AnchorMax.y
      value: 1
      objectReference: {fileID: 0}
    - target: {fileID: 3933712355892169016, guid: c327810ecc69fa448ae73d455b41268f,
        type: 3}
      propertyPath: m_AnchorMax.x
      value: 1
      objectReference: {fileID: 0}
    - target: {fileID: 3933712355892169016, guid: c327810ecc69fa448ae73d455b41268f,
        type: 3}
      propertyPath: m_AnchorMax.y
      value: 1
      objectReference: {fileID: 0}
    - target: {fileID: 3933712355892169016, guid: c327810ecc69fa448ae73d455b41268f,
        type: 3}
      propertyPath: m_SizeDelta.y
      value: -17
      objectReference: {fileID: 0}
    - target: {fileID: 3933712356246075705, guid: c327810ecc69fa448ae73d455b41268f,
        type: 3}
      propertyPath: mode
      value: 1
      objectReference: {fileID: 0}
    - target: {fileID: 3933712356246075706, guid: c327810ecc69fa448ae73d455b41268f,
        type: 3}
      propertyPath: m_LocalPosition.x
      value: 0
      objectReference: {fileID: 0}
    - target: {fileID: 3933712356246075706, guid: c327810ecc69fa448ae73d455b41268f,
        type: 3}
      propertyPath: m_LocalPosition.y
      value: 0
      objectReference: {fileID: 0}
    - target: {fileID: 3933712356246075706, guid: c327810ecc69fa448ae73d455b41268f,
        type: 3}
      propertyPath: m_LocalPosition.z
      value: 0
      objectReference: {fileID: 0}
    - target: {fileID: 3933712356246075706, guid: c327810ecc69fa448ae73d455b41268f,
        type: 3}
      propertyPath: m_LocalRotation.x
      value: 0
      objectReference: {fileID: 0}
    - target: {fileID: 3933712356246075706, guid: c327810ecc69fa448ae73d455b41268f,
        type: 3}
      propertyPath: m_LocalRotation.y
      value: 0
      objectReference: {fileID: 0}
    - target: {fileID: 3933712356246075706, guid: c327810ecc69fa448ae73d455b41268f,
        type: 3}
      propertyPath: m_LocalRotation.z
      value: 0
      objectReference: {fileID: 0}
    - target: {fileID: 3933712356246075706, guid: c327810ecc69fa448ae73d455b41268f,
        type: 3}
      propertyPath: m_LocalRotation.w
      value: 1
      objectReference: {fileID: 0}
    - target: {fileID: 3933712356246075706, guid: c327810ecc69fa448ae73d455b41268f,
        type: 3}
      propertyPath: m_RootOrder
      value: 2
      objectReference: {fileID: 0}
    - target: {fileID: 3933712356246075706, guid: c327810ecc69fa448ae73d455b41268f,
        type: 3}
      propertyPath: m_LocalEulerAnglesHint.x
      value: 0
      objectReference: {fileID: 0}
    - target: {fileID: 3933712356246075706, guid: c327810ecc69fa448ae73d455b41268f,
        type: 3}
      propertyPath: m_LocalEulerAnglesHint.y
      value: 0
      objectReference: {fileID: 0}
    - target: {fileID: 3933712356246075706, guid: c327810ecc69fa448ae73d455b41268f,
        type: 3}
      propertyPath: m_LocalEulerAnglesHint.z
      value: 0
      objectReference: {fileID: 0}
    - target: {fileID: 3933712356246075706, guid: c327810ecc69fa448ae73d455b41268f,
        type: 3}
      propertyPath: m_AnchoredPosition.x
      value: 0
      objectReference: {fileID: 0}
    - target: {fileID: 3933712356246075706, guid: c327810ecc69fa448ae73d455b41268f,
        type: 3}
      propertyPath: m_AnchoredPosition.y
      value: 0
      objectReference: {fileID: 0}
    - target: {fileID: 3933712356246075706, guid: c327810ecc69fa448ae73d455b41268f,
        type: 3}
      propertyPath: m_SizeDelta.x
      value: 0
      objectReference: {fileID: 0}
    - target: {fileID: 3933712356246075706, guid: c327810ecc69fa448ae73d455b41268f,
        type: 3}
      propertyPath: m_SizeDelta.y
      value: 0
      objectReference: {fileID: 0}
    - target: {fileID: 3933712356246075706, guid: c327810ecc69fa448ae73d455b41268f,
        type: 3}
      propertyPath: m_AnchorMin.x
      value: 0
      objectReference: {fileID: 0}
    - target: {fileID: 3933712356246075706, guid: c327810ecc69fa448ae73d455b41268f,
        type: 3}
      propertyPath: m_AnchorMin.y
      value: 0
      objectReference: {fileID: 0}
    - target: {fileID: 3933712356246075706, guid: c327810ecc69fa448ae73d455b41268f,
        type: 3}
      propertyPath: m_AnchorMax.x
      value: 1
      objectReference: {fileID: 0}
    - target: {fileID: 3933712356246075706, guid: c327810ecc69fa448ae73d455b41268f,
        type: 3}
      propertyPath: m_AnchorMax.y
      value: 1
      objectReference: {fileID: 0}
    - target: {fileID: 3933712356246075706, guid: c327810ecc69fa448ae73d455b41268f,
        type: 3}
      propertyPath: m_Pivot.x
      value: 0.5
      objectReference: {fileID: 0}
    - target: {fileID: 3933712356246075706, guid: c327810ecc69fa448ae73d455b41268f,
        type: 3}
      propertyPath: m_Pivot.y
      value: 0.5
      objectReference: {fileID: 0}
    - target: {fileID: 3933712356246075707, guid: c327810ecc69fa448ae73d455b41268f,
        type: 3}
      propertyPath: m_Name
      value: LoadGameMenu
      objectReference: {fileID: 0}
    - target: {fileID: 3933712356246075707, guid: c327810ecc69fa448ae73d455b41268f,
        type: 3}
      propertyPath: m_IsActive
      value: 0
      objectReference: {fileID: 0}
    - target: {fileID: 8236195270127744367, guid: c327810ecc69fa448ae73d455b41268f,
        type: 3}
      propertyPath: m_AnimationTriggers.m_PressedTrigger
      value: Pressed
      objectReference: {fileID: 0}
    - target: {fileID: 8236195270127744367, guid: c327810ecc69fa448ae73d455b41268f,
        type: 3}
      propertyPath: m_AnimationTriggers.m_SelectedTrigger
      value: Selected
      objectReference: {fileID: 0}
    - target: {fileID: 8236195270127744367, guid: c327810ecc69fa448ae73d455b41268f,
        type: 3}
      propertyPath: m_AnimationTriggers.m_DisabledTrigger
      value: Disabled
      objectReference: {fileID: 0}
    - target: {fileID: 8236195270312887630, guid: c327810ecc69fa448ae73d455b41268f,
        type: 3}
      propertyPath: m_AnimationTriggers.m_PressedTrigger
      value: Pressed
      objectReference: {fileID: 0}
    - target: {fileID: 8236195270312887630, guid: c327810ecc69fa448ae73d455b41268f,
        type: 3}
      propertyPath: m_AnimationTriggers.m_SelectedTrigger
      value: Selected
      objectReference: {fileID: 0}
    - target: {fileID: 8236195270312887630, guid: c327810ecc69fa448ae73d455b41268f,
        type: 3}
      propertyPath: m_AnimationTriggers.m_DisabledTrigger
      value: Disabled
      objectReference: {fileID: 0}
    - target: {fileID: 8236195270340982005, guid: c327810ecc69fa448ae73d455b41268f,
        type: 3}
      propertyPath: m_AnimationTriggers.m_PressedTrigger
      value: Pressed
      objectReference: {fileID: 0}
    - target: {fileID: 8236195270340982005, guid: c327810ecc69fa448ae73d455b41268f,
        type: 3}
      propertyPath: m_AnimationTriggers.m_SelectedTrigger
      value: Selected
      objectReference: {fileID: 0}
    - target: {fileID: 8236195270340982005, guid: c327810ecc69fa448ae73d455b41268f,
        type: 3}
      propertyPath: m_AnimationTriggers.m_DisabledTrigger
      value: Disabled
      objectReference: {fileID: 0}
    - target: {fileID: 8236195270361325532, guid: c327810ecc69fa448ae73d455b41268f,
        type: 3}
      propertyPath: m_AnimationTriggers.m_PressedTrigger
      value: Pressed
      objectReference: {fileID: 0}
    - target: {fileID: 8236195270361325532, guid: c327810ecc69fa448ae73d455b41268f,
        type: 3}
      propertyPath: m_AnimationTriggers.m_SelectedTrigger
      value: Selected
      objectReference: {fileID: 0}
    - target: {fileID: 8236195270361325532, guid: c327810ecc69fa448ae73d455b41268f,
        type: 3}
      propertyPath: m_AnimationTriggers.m_DisabledTrigger
      value: Disabled
      objectReference: {fileID: 0}
    - target: {fileID: 8236195270543170559, guid: c327810ecc69fa448ae73d455b41268f,
        type: 3}
      propertyPath: m_AnimationTriggers.m_PressedTrigger
      value: Pressed
      objectReference: {fileID: 0}
    - target: {fileID: 8236195270543170559, guid: c327810ecc69fa448ae73d455b41268f,
        type: 3}
      propertyPath: m_AnimationTriggers.m_SelectedTrigger
      value: Selected
      objectReference: {fileID: 0}
    - target: {fileID: 8236195270543170559, guid: c327810ecc69fa448ae73d455b41268f,
        type: 3}
      propertyPath: m_AnimationTriggers.m_DisabledTrigger
      value: Disabled
      objectReference: {fileID: 0}
    - target: {fileID: 8236195270650257066, guid: c327810ecc69fa448ae73d455b41268f,
        type: 3}
      propertyPath: m_AnimationTriggers.m_PressedTrigger
      value: Pressed
      objectReference: {fileID: 0}
    - target: {fileID: 8236195270650257066, guid: c327810ecc69fa448ae73d455b41268f,
        type: 3}
      propertyPath: m_AnimationTriggers.m_SelectedTrigger
      value: Selected
      objectReference: {fileID: 0}
    - target: {fileID: 8236195270650257066, guid: c327810ecc69fa448ae73d455b41268f,
        type: 3}
      propertyPath: m_AnimationTriggers.m_DisabledTrigger
      value: Disabled
      objectReference: {fileID: 0}
    - target: {fileID: 8236195270689414586, guid: c327810ecc69fa448ae73d455b41268f,
        type: 3}
      propertyPath: m_AnimationTriggers.m_PressedTrigger
      value: Pressed
      objectReference: {fileID: 0}
    - target: {fileID: 8236195270689414586, guid: c327810ecc69fa448ae73d455b41268f,
        type: 3}
      propertyPath: m_AnimationTriggers.m_SelectedTrigger
      value: Selected
      objectReference: {fileID: 0}
    - target: {fileID: 8236195270689414586, guid: c327810ecc69fa448ae73d455b41268f,
        type: 3}
      propertyPath: m_AnimationTriggers.m_DisabledTrigger
      value: Disabled
      objectReference: {fileID: 0}
    - target: {fileID: 8236195271046509123, guid: c327810ecc69fa448ae73d455b41268f,
        type: 3}
      propertyPath: m_AnimationTriggers.m_PressedTrigger
      value: Pressed
      objectReference: {fileID: 0}
    - target: {fileID: 8236195271046509123, guid: c327810ecc69fa448ae73d455b41268f,
        type: 3}
      propertyPath: m_AnimationTriggers.m_SelectedTrigger
      value: Selected
      objectReference: {fileID: 0}
    - target: {fileID: 8236195271046509123, guid: c327810ecc69fa448ae73d455b41268f,
        type: 3}
      propertyPath: m_AnimationTriggers.m_DisabledTrigger
      value: Disabled
      objectReference: {fileID: 0}
    - target: {fileID: 8236195271125106480, guid: c327810ecc69fa448ae73d455b41268f,
        type: 3}
      propertyPath: m_AnimationTriggers.m_PressedTrigger
      value: Pressed
      objectReference: {fileID: 0}
    - target: {fileID: 8236195271125106480, guid: c327810ecc69fa448ae73d455b41268f,
        type: 3}
      propertyPath: m_AnimationTriggers.m_SelectedTrigger
      value: Selected
      objectReference: {fileID: 0}
    - target: {fileID: 8236195271125106480, guid: c327810ecc69fa448ae73d455b41268f,
        type: 3}
      propertyPath: m_AnimationTriggers.m_DisabledTrigger
      value: Disabled
      objectReference: {fileID: 0}
    - target: {fileID: 8236195271125106481, guid: c327810ecc69fa448ae73d455b41268f,
        type: 3}
      propertyPath: m_UpdateMode
      value: 1
      objectReference: {fileID: 0}
    - target: {fileID: 8236195271770495429, guid: c327810ecc69fa448ae73d455b41268f,
        type: 3}
      propertyPath: m_AnimationTriggers.m_PressedTrigger
      value: Pressed
      objectReference: {fileID: 0}
    - target: {fileID: 8236195271770495429, guid: c327810ecc69fa448ae73d455b41268f,
        type: 3}
      propertyPath: m_AnimationTriggers.m_SelectedTrigger
      value: Selected
      objectReference: {fileID: 0}
    - target: {fileID: 8236195271770495429, guid: c327810ecc69fa448ae73d455b41268f,
        type: 3}
      propertyPath: m_AnimationTriggers.m_DisabledTrigger
      value: Disabled
      objectReference: {fileID: 0}
    m_RemovedComponents: []
  m_SourcePrefab: {fileID: 100100000, guid: c327810ecc69fa448ae73d455b41268f, type: 3}
--- !u!1001 &5319216363702099295
PrefabInstance:
  m_ObjectHideFlags: 0
  serializedVersion: 2
  m_Modification:
    m_TransformParent: {fileID: 2063066495}
    m_Modifications:
    - target: {fileID: 2017876919894144944, guid: 55d927b9ab11dbd41b88bef726968b7a,
        type: 3}
      propertyPath: m_Name
      value: SettingsButton
      objectReference: {fileID: 0}
    - target: {fileID: 3257345701185978226, guid: 55d927b9ab11dbd41b88bef726968b7a,
        type: 3}
      propertyPath: m_Enabled
      value: 1
      objectReference: {fileID: 0}
    - target: {fileID: 5892742415567447876, guid: 55d927b9ab11dbd41b88bef726968b7a,
        type: 3}
      propertyPath: m_OnClick.m_PersistentCalls.m_Calls.Array.data[0].m_Target
      value: 
      objectReference: {fileID: 1898227295}
    - target: {fileID: 5892742415567447876, guid: 55d927b9ab11dbd41b88bef726968b7a,
        type: 3}
      propertyPath: m_Navigation.m_Mode
      value: 0
      objectReference: {fileID: 0}
    - target: {fileID: 6674456315272897742, guid: 55d927b9ab11dbd41b88bef726968b7a,
        type: 3}
      propertyPath: m_Enabled
      value: 1
      objectReference: {fileID: 0}
    - target: {fileID: 6674456315272897742, guid: 55d927b9ab11dbd41b88bef726968b7a,
        type: 3}
      propertyPath: m_text
      value: UITEXT.SETTINGS
      objectReference: {fileID: 0}
    - target: {fileID: 6674456315272897742, guid: 55d927b9ab11dbd41b88bef726968b7a,
        type: 3}
      propertyPath: m_textInfo.characterCount
      value: 15
      objectReference: {fileID: 0}
    - target: {fileID: 6674456315272897742, guid: 55d927b9ab11dbd41b88bef726968b7a,
        type: 3}
      propertyPath: m_textInfo.wordCount
      value: 2
      objectReference: {fileID: 0}
    - target: {fileID: 6674456315272897742, guid: 55d927b9ab11dbd41b88bef726968b7a,
        type: 3}
      propertyPath: m_textInfo.lineCount
      value: 1
      objectReference: {fileID: 0}
    - target: {fileID: 6674456315272897742, guid: 55d927b9ab11dbd41b88bef726968b7a,
        type: 3}
      propertyPath: m_textInfo.pageCount
      value: 1
      objectReference: {fileID: 0}
    - target: {fileID: 6674456315272897742, guid: 55d927b9ab11dbd41b88bef726968b7a,
        type: 3}
      propertyPath: m_textAlignment
      value: 513
      objectReference: {fileID: 0}
    - target: {fileID: 6674456315272897742, guid: 55d927b9ab11dbd41b88bef726968b7a,
        type: 3}
      propertyPath: uiText
      value: 9
      objectReference: {fileID: 0}
    - target: {fileID: 6674456315272897742, guid: 55d927b9ab11dbd41b88bef726968b7a,
        type: 3}
      propertyPath: m_fontAsset
      value: 
      objectReference: {fileID: 11400000, guid: 12a828ef1b80660419cdddee57acfc69,
        type: 2}
    - target: {fileID: 6674456315272897742, guid: 55d927b9ab11dbd41b88bef726968b7a,
        type: 3}
      propertyPath: m_sharedMaterial
      value: 
      objectReference: {fileID: -2757185516951084293, guid: 12a828ef1b80660419cdddee57acfc69,
        type: 2}
    - target: {fileID: 7220603182151507075, guid: 55d927b9ab11dbd41b88bef726968b7a,
        type: 3}
      propertyPath: m_LocalPosition.x
      value: 0
      objectReference: {fileID: 0}
    - target: {fileID: 7220603182151507075, guid: 55d927b9ab11dbd41b88bef726968b7a,
        type: 3}
      propertyPath: m_LocalPosition.y
      value: 0
      objectReference: {fileID: 0}
    - target: {fileID: 7220603182151507075, guid: 55d927b9ab11dbd41b88bef726968b7a,
        type: 3}
      propertyPath: m_LocalPosition.z
      value: 0
      objectReference: {fileID: 0}
    - target: {fileID: 7220603182151507075, guid: 55d927b9ab11dbd41b88bef726968b7a,
        type: 3}
      propertyPath: m_LocalRotation.x
      value: 0
      objectReference: {fileID: 0}
    - target: {fileID: 7220603182151507075, guid: 55d927b9ab11dbd41b88bef726968b7a,
        type: 3}
      propertyPath: m_LocalRotation.y
      value: 0
      objectReference: {fileID: 0}
    - target: {fileID: 7220603182151507075, guid: 55d927b9ab11dbd41b88bef726968b7a,
        type: 3}
      propertyPath: m_LocalRotation.z
      value: 0
      objectReference: {fileID: 0}
    - target: {fileID: 7220603182151507075, guid: 55d927b9ab11dbd41b88bef726968b7a,
        type: 3}
      propertyPath: m_LocalRotation.w
      value: 1
      objectReference: {fileID: 0}
    - target: {fileID: 7220603182151507075, guid: 55d927b9ab11dbd41b88bef726968b7a,
        type: 3}
      propertyPath: m_RootOrder
      value: 2
      objectReference: {fileID: 0}
    - target: {fileID: 7220603182151507075, guid: 55d927b9ab11dbd41b88bef726968b7a,
        type: 3}
      propertyPath: m_LocalEulerAnglesHint.x
      value: 0
      objectReference: {fileID: 0}
    - target: {fileID: 7220603182151507075, guid: 55d927b9ab11dbd41b88bef726968b7a,
        type: 3}
      propertyPath: m_LocalEulerAnglesHint.y
      value: 0
      objectReference: {fileID: 0}
    - target: {fileID: 7220603182151507075, guid: 55d927b9ab11dbd41b88bef726968b7a,
        type: 3}
      propertyPath: m_LocalEulerAnglesHint.z
      value: 0
      objectReference: {fileID: 0}
    - target: {fileID: 7220603182151507075, guid: 55d927b9ab11dbd41b88bef726968b7a,
        type: 3}
      propertyPath: m_AnchoredPosition.x
      value: -626.5
      objectReference: {fileID: 0}
    - target: {fileID: 7220603182151507075, guid: 55d927b9ab11dbd41b88bef726968b7a,
        type: 3}
      propertyPath: m_AnchoredPosition.y
      value: -557.5
      objectReference: {fileID: 0}
    - target: {fileID: 7220603182151507075, guid: 55d927b9ab11dbd41b88bef726968b7a,
        type: 3}
      propertyPath: m_SizeDelta.x
      value: 1253
      objectReference: {fileID: 0}
    - target: {fileID: 7220603182151507075, guid: 55d927b9ab11dbd41b88bef726968b7a,
        type: 3}
      propertyPath: m_SizeDelta.y
      value: 219
      objectReference: {fileID: 0}
    - target: {fileID: 7220603182151507075, guid: 55d927b9ab11dbd41b88bef726968b7a,
        type: 3}
      propertyPath: m_AnchorMin.x
      value: 0
      objectReference: {fileID: 0}
    - target: {fileID: 7220603182151507075, guid: 55d927b9ab11dbd41b88bef726968b7a,
        type: 3}
      propertyPath: m_AnchorMin.y
      value: 1
      objectReference: {fileID: 0}
    - target: {fileID: 7220603182151507075, guid: 55d927b9ab11dbd41b88bef726968b7a,
        type: 3}
      propertyPath: m_AnchorMax.x
      value: 0
      objectReference: {fileID: 0}
    - target: {fileID: 7220603182151507075, guid: 55d927b9ab11dbd41b88bef726968b7a,
        type: 3}
      propertyPath: m_AnchorMax.y
      value: 1
      objectReference: {fileID: 0}
    - target: {fileID: 7220603182151507075, guid: 55d927b9ab11dbd41b88bef726968b7a,
        type: 3}
      propertyPath: m_Pivot.x
      value: 0.5
      objectReference: {fileID: 0}
    - target: {fileID: 7220603182151507075, guid: 55d927b9ab11dbd41b88bef726968b7a,
        type: 3}
      propertyPath: m_Pivot.y
      value: 0.5
      objectReference: {fileID: 0}
    m_RemovedComponents: []
  m_SourcePrefab: {fileID: 100100000, guid: 55d927b9ab11dbd41b88bef726968b7a, type: 3}
--- !u!1001 &6978354906472316713
PrefabInstance:
  m_ObjectHideFlags: 0
  serializedVersion: 2
  m_Modification:
    m_TransformParent: {fileID: 2063066495}
    m_Modifications:
    - target: {fileID: 305634962576636296, guid: 325b208f8125803439f2014668fb4698,
        type: 3}
      propertyPath: m_Enabled
      value: 1
      objectReference: {fileID: 0}
    - target: {fileID: 3821673269434249546, guid: 325b208f8125803439f2014668fb4698,
        type: 3}
      propertyPath: m_Name
      value: LoadGameButton
      objectReference: {fileID: 0}
    - target: {fileID: 5565608697053715065, guid: 325b208f8125803439f2014668fb4698,
        type: 3}
      propertyPath: m_LocalPosition.x
      value: 0
      objectReference: {fileID: 0}
    - target: {fileID: 5565608697053715065, guid: 325b208f8125803439f2014668fb4698,
        type: 3}
      propertyPath: m_LocalPosition.y
      value: 0
      objectReference: {fileID: 0}
    - target: {fileID: 5565608697053715065, guid: 325b208f8125803439f2014668fb4698,
        type: 3}
      propertyPath: m_LocalPosition.z
      value: 0
      objectReference: {fileID: 0}
    - target: {fileID: 5565608697053715065, guid: 325b208f8125803439f2014668fb4698,
        type: 3}
      propertyPath: m_LocalRotation.x
      value: 0
      objectReference: {fileID: 0}
    - target: {fileID: 5565608697053715065, guid: 325b208f8125803439f2014668fb4698,
        type: 3}
      propertyPath: m_LocalRotation.y
      value: 0
      objectReference: {fileID: 0}
    - target: {fileID: 5565608697053715065, guid: 325b208f8125803439f2014668fb4698,
        type: 3}
      propertyPath: m_LocalRotation.z
      value: 0
      objectReference: {fileID: 0}
    - target: {fileID: 5565608697053715065, guid: 325b208f8125803439f2014668fb4698,
        type: 3}
      propertyPath: m_LocalRotation.w
      value: 1
      objectReference: {fileID: 0}
    - target: {fileID: 5565608697053715065, guid: 325b208f8125803439f2014668fb4698,
        type: 3}
      propertyPath: m_RootOrder
      value: 1
      objectReference: {fileID: 0}
    - target: {fileID: 5565608697053715065, guid: 325b208f8125803439f2014668fb4698,
        type: 3}
      propertyPath: m_LocalEulerAnglesHint.x
      value: 0
      objectReference: {fileID: 0}
    - target: {fileID: 5565608697053715065, guid: 325b208f8125803439f2014668fb4698,
        type: 3}
      propertyPath: m_LocalEulerAnglesHint.y
      value: 0
      objectReference: {fileID: 0}
    - target: {fileID: 5565608697053715065, guid: 325b208f8125803439f2014668fb4698,
        type: 3}
      propertyPath: m_LocalEulerAnglesHint.z
      value: 0
      objectReference: {fileID: 0}
    - target: {fileID: 5565608697053715065, guid: 325b208f8125803439f2014668fb4698,
        type: 3}
      propertyPath: m_AnchoredPosition.x
      value: -626.5
      objectReference: {fileID: 0}
    - target: {fileID: 5565608697053715065, guid: 325b208f8125803439f2014668fb4698,
        type: 3}
      propertyPath: m_AnchoredPosition.y
      value: -329.5
      objectReference: {fileID: 0}
    - target: {fileID: 5565608697053715065, guid: 325b208f8125803439f2014668fb4698,
        type: 3}
      propertyPath: m_SizeDelta.x
      value: 1253
      objectReference: {fileID: 0}
    - target: {fileID: 5565608697053715065, guid: 325b208f8125803439f2014668fb4698,
        type: 3}
      propertyPath: m_SizeDelta.y
      value: 219
      objectReference: {fileID: 0}
    - target: {fileID: 5565608697053715065, guid: 325b208f8125803439f2014668fb4698,
        type: 3}
      propertyPath: m_AnchorMin.x
      value: 0
      objectReference: {fileID: 0}
    - target: {fileID: 5565608697053715065, guid: 325b208f8125803439f2014668fb4698,
        type: 3}
      propertyPath: m_AnchorMin.y
      value: 1
      objectReference: {fileID: 0}
    - target: {fileID: 5565608697053715065, guid: 325b208f8125803439f2014668fb4698,
        type: 3}
      propertyPath: m_AnchorMax.x
      value: 0
      objectReference: {fileID: 0}
    - target: {fileID: 5565608697053715065, guid: 325b208f8125803439f2014668fb4698,
        type: 3}
      propertyPath: m_AnchorMax.y
      value: 1
      objectReference: {fileID: 0}
    - target: {fileID: 5565608697053715065, guid: 325b208f8125803439f2014668fb4698,
        type: 3}
      propertyPath: m_Pivot.x
      value: 0.5
      objectReference: {fileID: 0}
    - target: {fileID: 5565608697053715065, guid: 325b208f8125803439f2014668fb4698,
        type: 3}
      propertyPath: m_Pivot.y
      value: 0.5
      objectReference: {fileID: 0}
    - target: {fileID: 8478538047471755828, guid: 325b208f8125803439f2014668fb4698,
        type: 3}
      propertyPath: m_text
      value: UITEXT.LOAD_GAME
      objectReference: {fileID: 0}
    - target: {fileID: 8478538047471755828, guid: 325b208f8125803439f2014668fb4698,
        type: 3}
      propertyPath: m_textAlignment
      value: 513
      objectReference: {fileID: 0}
    - target: {fileID: 8478538047471755828, guid: 325b208f8125803439f2014668fb4698,
        type: 3}
      propertyPath: m_Enabled
      value: 1
      objectReference: {fileID: 0}
    - target: {fileID: 8478538047471755828, guid: 325b208f8125803439f2014668fb4698,
        type: 3}
      propertyPath: m_textInfo.characterCount
      value: 16
      objectReference: {fileID: 0}
    - target: {fileID: 8478538047471755828, guid: 325b208f8125803439f2014668fb4698,
        type: 3}
      propertyPath: m_textInfo.wordCount
      value: 3
      objectReference: {fileID: 0}
    - target: {fileID: 8478538047471755828, guid: 325b208f8125803439f2014668fb4698,
        type: 3}
      propertyPath: m_textInfo.lineCount
      value: 1
      objectReference: {fileID: 0}
    - target: {fileID: 8478538047471755828, guid: 325b208f8125803439f2014668fb4698,
        type: 3}
      propertyPath: m_textInfo.pageCount
      value: 1
      objectReference: {fileID: 0}
    - target: {fileID: 8478538047471755828, guid: 325b208f8125803439f2014668fb4698,
        type: 3}
      propertyPath: uiText
      value: 8
      objectReference: {fileID: 0}
    - target: {fileID: 8478538047471755828, guid: 325b208f8125803439f2014668fb4698,
        type: 3}
      propertyPath: m_fontAsset
      value: 
      objectReference: {fileID: 11400000, guid: 12a828ef1b80660419cdddee57acfc69,
        type: 2}
    - target: {fileID: 8478538047471755828, guid: 325b208f8125803439f2014668fb4698,
        type: 3}
      propertyPath: m_sharedMaterial
      value: 
      objectReference: {fileID: -2757185516951084293, guid: 12a828ef1b80660419cdddee57acfc69,
        type: 2}
    - target: {fileID: 8705042226918613438, guid: 325b208f8125803439f2014668fb4698,
        type: 3}
      propertyPath: m_OnClick.m_PersistentCalls.m_Calls.Array.data[0].m_Target
      value: 
      objectReference: {fileID: 1898227295}
    - target: {fileID: 8705042226918613438, guid: 325b208f8125803439f2014668fb4698,
        type: 3}
      propertyPath: m_OnClick.m_PersistentCalls.m_Calls.Array.data[0].m_MethodName
      value: OnLoadGameButtonClicked
      objectReference: {fileID: 0}
    - target: {fileID: 8705042226918613438, guid: 325b208f8125803439f2014668fb4698,
        type: 3}
      propertyPath: m_Navigation.m_Mode
      value: 0
      objectReference: {fileID: 0}
    m_RemovedComponents: []
  m_SourcePrefab: {fileID: 100100000, guid: 325b208f8125803439f2014668fb4698, type: 3}
--- !u!1001 &8272897470674646662
PrefabInstance:
  m_ObjectHideFlags: 0
  serializedVersion: 2
  m_Modification:
    m_TransformParent: {fileID: 2063066495}
    m_Modifications:
    - target: {fileID: 1597354942624229260, guid: ee848a5b7592c56499fde82fa5b65300,
        type: 3}
      propertyPath: m_Enabled
      value: 1
      objectReference: {fileID: 0}
    - target: {fileID: 2818808259010293582, guid: ee848a5b7592c56499fde82fa5b65300,
        type: 3}
      propertyPath: m_Name
      value: StartGameButton
      objectReference: {fileID: 0}
    - target: {fileID: 6857336423074432125, guid: ee848a5b7592c56499fde82fa5b65300,
        type: 3}
      propertyPath: m_LocalPosition.x
      value: 0
      objectReference: {fileID: 0}
    - target: {fileID: 6857336423074432125, guid: ee848a5b7592c56499fde82fa5b65300,
        type: 3}
      propertyPath: m_LocalPosition.y
      value: 0
      objectReference: {fileID: 0}
    - target: {fileID: 6857336423074432125, guid: ee848a5b7592c56499fde82fa5b65300,
        type: 3}
      propertyPath: m_LocalPosition.z
      value: 0
      objectReference: {fileID: 0}
    - target: {fileID: 6857336423074432125, guid: ee848a5b7592c56499fde82fa5b65300,
        type: 3}
      propertyPath: m_LocalRotation.x
      value: 0
      objectReference: {fileID: 0}
    - target: {fileID: 6857336423074432125, guid: ee848a5b7592c56499fde82fa5b65300,
        type: 3}
      propertyPath: m_LocalRotation.y
      value: 0
      objectReference: {fileID: 0}
    - target: {fileID: 6857336423074432125, guid: ee848a5b7592c56499fde82fa5b65300,
        type: 3}
      propertyPath: m_LocalRotation.z
      value: 0
      objectReference: {fileID: 0}
    - target: {fileID: 6857336423074432125, guid: ee848a5b7592c56499fde82fa5b65300,
        type: 3}
      propertyPath: m_LocalRotation.w
      value: 1
      objectReference: {fileID: 0}
    - target: {fileID: 6857336423074432125, guid: ee848a5b7592c56499fde82fa5b65300,
        type: 3}
      propertyPath: m_RootOrder
      value: 0
      objectReference: {fileID: 0}
    - target: {fileID: 6857336423074432125, guid: ee848a5b7592c56499fde82fa5b65300,
        type: 3}
      propertyPath: m_LocalEulerAnglesHint.x
      value: 0
      objectReference: {fileID: 0}
    - target: {fileID: 6857336423074432125, guid: ee848a5b7592c56499fde82fa5b65300,
        type: 3}
      propertyPath: m_LocalEulerAnglesHint.y
      value: 0
      objectReference: {fileID: 0}
    - target: {fileID: 6857336423074432125, guid: ee848a5b7592c56499fde82fa5b65300,
        type: 3}
      propertyPath: m_LocalEulerAnglesHint.z
      value: 0
      objectReference: {fileID: 0}
    - target: {fileID: 6857336423074432125, guid: ee848a5b7592c56499fde82fa5b65300,
        type: 3}
      propertyPath: m_AnchoredPosition.x
      value: -626.5
      objectReference: {fileID: 0}
    - target: {fileID: 6857336423074432125, guid: ee848a5b7592c56499fde82fa5b65300,
        type: 3}
      propertyPath: m_AnchoredPosition.y
      value: -101.5
      objectReference: {fileID: 0}
    - target: {fileID: 6857336423074432125, guid: ee848a5b7592c56499fde82fa5b65300,
        type: 3}
      propertyPath: m_SizeDelta.x
      value: 1253
      objectReference: {fileID: 0}
    - target: {fileID: 6857336423074432125, guid: ee848a5b7592c56499fde82fa5b65300,
        type: 3}
      propertyPath: m_SizeDelta.y
      value: 219
      objectReference: {fileID: 0}
    - target: {fileID: 6857336423074432125, guid: ee848a5b7592c56499fde82fa5b65300,
        type: 3}
      propertyPath: m_AnchorMin.x
      value: 0
      objectReference: {fileID: 0}
    - target: {fileID: 6857336423074432125, guid: ee848a5b7592c56499fde82fa5b65300,
        type: 3}
      propertyPath: m_AnchorMin.y
      value: 1
      objectReference: {fileID: 0}
    - target: {fileID: 6857336423074432125, guid: ee848a5b7592c56499fde82fa5b65300,
        type: 3}
      propertyPath: m_AnchorMax.x
      value: 0
      objectReference: {fileID: 0}
    - target: {fileID: 6857336423074432125, guid: ee848a5b7592c56499fde82fa5b65300,
        type: 3}
      propertyPath: m_AnchorMax.y
      value: 1
      objectReference: {fileID: 0}
    - target: {fileID: 6857336423074432125, guid: ee848a5b7592c56499fde82fa5b65300,
        type: 3}
      propertyPath: m_Pivot.x
      value: 0.5
      objectReference: {fileID: 0}
    - target: {fileID: 6857336423074432125, guid: ee848a5b7592c56499fde82fa5b65300,
        type: 3}
      propertyPath: m_Pivot.y
      value: 0.5
      objectReference: {fileID: 0}
    - target: {fileID: 7475682725420416048, guid: ee848a5b7592c56499fde82fa5b65300,
        type: 3}
      propertyPath: m_Enabled
      value: 1
      objectReference: {fileID: 0}
    - target: {fileID: 7475682725420416048, guid: ee848a5b7592c56499fde82fa5b65300,
        type: 3}
      propertyPath: m_text
      value: UITEXT.START_GAME
      objectReference: {fileID: 0}
    - target: {fileID: 7475682725420416048, guid: ee848a5b7592c56499fde82fa5b65300,
        type: 3}
      propertyPath: m_textInfo.characterCount
      value: 17
      objectReference: {fileID: 0}
    - target: {fileID: 7475682725420416048, guid: ee848a5b7592c56499fde82fa5b65300,
        type: 3}
      propertyPath: m_textInfo.wordCount
      value: 3
      objectReference: {fileID: 0}
    - target: {fileID: 7475682725420416048, guid: ee848a5b7592c56499fde82fa5b65300,
        type: 3}
      propertyPath: m_textInfo.lineCount
      value: 1
      objectReference: {fileID: 0}
    - target: {fileID: 7475682725420416048, guid: ee848a5b7592c56499fde82fa5b65300,
        type: 3}
      propertyPath: m_textInfo.pageCount
      value: 1
      objectReference: {fileID: 0}
    - target: {fileID: 7475682725420416048, guid: ee848a5b7592c56499fde82fa5b65300,
        type: 3}
      propertyPath: m_textAlignment
      value: 513
      objectReference: {fileID: 0}
    - target: {fileID: 7475682725420416048, guid: ee848a5b7592c56499fde82fa5b65300,
        type: 3}
      propertyPath: uiText
      value: 7
      objectReference: {fileID: 0}
    - target: {fileID: 7475682725420416048, guid: ee848a5b7592c56499fde82fa5b65300,
        type: 3}
      propertyPath: m_fontAsset
      value: 
      objectReference: {fileID: 11400000, guid: 12a828ef1b80660419cdddee57acfc69,
        type: 2}
    - target: {fileID: 7475682725420416048, guid: ee848a5b7592c56499fde82fa5b65300,
        type: 3}
      propertyPath: m_sharedMaterial
      value: 
      objectReference: {fileID: -2757185516951084293, guid: 12a828ef1b80660419cdddee57acfc69,
        type: 2}
    - target: {fileID: 7475682725420416048, guid: ee848a5b7592c56499fde82fa5b65300,
        type: 3}
      propertyPath: m_fontStyle
      value: 16
      objectReference: {fileID: 0}
    - target: {fileID: 7475682725420416048, guid: ee848a5b7592c56499fde82fa5b65300,
        type: 3}
      propertyPath: m_fontColor.r
      value: 1
      objectReference: {fileID: 0}
    - target: {fileID: 7475682725420416048, guid: ee848a5b7592c56499fde82fa5b65300,
        type: 3}
      propertyPath: m_fontColor.g
      value: 1
      objectReference: {fileID: 0}
    - target: {fileID: 7475682725420416048, guid: ee848a5b7592c56499fde82fa5b65300,
        type: 3}
      propertyPath: m_fontColor.b
      value: 1
      objectReference: {fileID: 0}
    - target: {fileID: 7475682725420416048, guid: ee848a5b7592c56499fde82fa5b65300,
        type: 3}
      propertyPath: m_fontColor32.rgba
      value: 4289572269
      objectReference: {fileID: 0}
    - target: {fileID: 7699362552627036090, guid: ee848a5b7592c56499fde82fa5b65300,
        type: 3}
      propertyPath: m_OnClick.m_PersistentCalls.m_Calls.Array.data[0].m_Target
      value: 
      objectReference: {fileID: 1898227295}
    - target: {fileID: 7699362552627036090, guid: ee848a5b7592c56499fde82fa5b65300,
        type: 3}
      propertyPath: m_Navigation.m_Mode
      value: 0
      objectReference: {fileID: 0}
    - target: {fileID: 7699362552627036090, guid: ee848a5b7592c56499fde82fa5b65300,
        type: 3}
      propertyPath: m_Enabled
      value: 1
      objectReference: {fileID: 0}
    m_RemovedComponents: []
  m_SourcePrefab: {fileID: 100100000, guid: ee848a5b7592c56499fde82fa5b65300, type: 3}
--- !u!1001 &9113820302972153215
PrefabInstance:
  m_ObjectHideFlags: 0
  serializedVersion: 2
  m_Modification:
    m_TransformParent: {fileID: 1890666490}
    m_Modifications:
    - target: {fileID: 7380368856465462902, guid: 8126f563deb9fc446973d71a49c09b23,
        type: 3}
      propertyPath: m_OnClick.m_PersistentCalls.m_Calls.Array.data[0].m_Target
      value: 
      objectReference: {fileID: 149280685}
    - target: {fileID: 9113820303190627561, guid: 8126f563deb9fc446973d71a49c09b23,
        type: 3}
      propertyPath: m_LocalPosition.x
      value: 0
      objectReference: {fileID: 0}
    - target: {fileID: 9113820303190627561, guid: 8126f563deb9fc446973d71a49c09b23,
        type: 3}
      propertyPath: m_LocalPosition.y
      value: 0
      objectReference: {fileID: 0}
    - target: {fileID: 9113820303190627561, guid: 8126f563deb9fc446973d71a49c09b23,
        type: 3}
      propertyPath: m_LocalPosition.z
      value: 0
      objectReference: {fileID: 0}
    - target: {fileID: 9113820303190627561, guid: 8126f563deb9fc446973d71a49c09b23,
        type: 3}
      propertyPath: m_LocalRotation.x
      value: 0
      objectReference: {fileID: 0}
    - target: {fileID: 9113820303190627561, guid: 8126f563deb9fc446973d71a49c09b23,
        type: 3}
      propertyPath: m_LocalRotation.y
      value: 0
      objectReference: {fileID: 0}
    - target: {fileID: 9113820303190627561, guid: 8126f563deb9fc446973d71a49c09b23,
        type: 3}
      propertyPath: m_LocalRotation.z
      value: 0
      objectReference: {fileID: 0}
    - target: {fileID: 9113820303190627561, guid: 8126f563deb9fc446973d71a49c09b23,
        type: 3}
      propertyPath: m_LocalRotation.w
      value: 1
      objectReference: {fileID: 0}
    - target: {fileID: 9113820303190627561, guid: 8126f563deb9fc446973d71a49c09b23,
        type: 3}
      propertyPath: m_RootOrder
      value: 3
      objectReference: {fileID: 0}
    - target: {fileID: 9113820303190627561, guid: 8126f563deb9fc446973d71a49c09b23,
        type: 3}
      propertyPath: m_LocalEulerAnglesHint.x
      value: 0
      objectReference: {fileID: 0}
    - target: {fileID: 9113820303190627561, guid: 8126f563deb9fc446973d71a49c09b23,
        type: 3}
      propertyPath: m_LocalEulerAnglesHint.y
      value: 0
      objectReference: {fileID: 0}
    - target: {fileID: 9113820303190627561, guid: 8126f563deb9fc446973d71a49c09b23,
        type: 3}
      propertyPath: m_LocalEulerAnglesHint.z
      value: 0
      objectReference: {fileID: 0}
    - target: {fileID: 9113820303190627561, guid: 8126f563deb9fc446973d71a49c09b23,
        type: 3}
      propertyPath: m_AnchoredPosition.x
      value: 0
      objectReference: {fileID: 0}
    - target: {fileID: 9113820303190627561, guid: 8126f563deb9fc446973d71a49c09b23,
        type: 3}
      propertyPath: m_AnchoredPosition.y
      value: 0
      objectReference: {fileID: 0}
    - target: {fileID: 9113820303190627561, guid: 8126f563deb9fc446973d71a49c09b23,
        type: 3}
      propertyPath: m_SizeDelta.x
      value: 0
      objectReference: {fileID: 0}
    - target: {fileID: 9113820303190627561, guid: 8126f563deb9fc446973d71a49c09b23,
        type: 3}
      propertyPath: m_SizeDelta.y
      value: 0
      objectReference: {fileID: 0}
    - target: {fileID: 9113820303190627561, guid: 8126f563deb9fc446973d71a49c09b23,
        type: 3}
      propertyPath: m_AnchorMin.x
      value: 0
      objectReference: {fileID: 0}
    - target: {fileID: 9113820303190627561, guid: 8126f563deb9fc446973d71a49c09b23,
        type: 3}
      propertyPath: m_AnchorMin.y
      value: 0
      objectReference: {fileID: 0}
    - target: {fileID: 9113820303190627561, guid: 8126f563deb9fc446973d71a49c09b23,
        type: 3}
      propertyPath: m_AnchorMax.x
      value: 1
      objectReference: {fileID: 0}
    - target: {fileID: 9113820303190627561, guid: 8126f563deb9fc446973d71a49c09b23,
        type: 3}
      propertyPath: m_AnchorMax.y
      value: 1
      objectReference: {fileID: 0}
    - target: {fileID: 9113820303190627561, guid: 8126f563deb9fc446973d71a49c09b23,
        type: 3}
      propertyPath: m_Pivot.x
      value: 0.5
      objectReference: {fileID: 0}
    - target: {fileID: 9113820303190627561, guid: 8126f563deb9fc446973d71a49c09b23,
        type: 3}
      propertyPath: m_Pivot.y
      value: 0.5
      objectReference: {fileID: 0}
    - target: {fileID: 9113820303190627562, guid: 8126f563deb9fc446973d71a49c09b23,
        type: 3}
      propertyPath: m_Name
      value: GameSettingsMenu
      objectReference: {fileID: 0}
    m_RemovedComponents: []
  m_SourcePrefab: {fileID: 100100000, guid: 8126f563deb9fc446973d71a49c09b23, type: 3}
